\relax 
\providecommand\hyper@newdestlabel[2]{}
\catcode `"\active 
\providecommand\HyperFirstAtBeginDocument{\AtBeginDocument}
\HyperFirstAtBeginDocument{\ifx\hyper@anchor\@undefined
\global\let\oldcontentsline\contentsline
\gdef\contentsline#1#2#3#4{\oldcontentsline{#1}{#2}{#3}}
\global\let\oldnewlabel\newlabel
\gdef\newlabel#1#2{\newlabelxx{#1}#2}
\gdef\newlabelxx#1#2#3#4#5#6{\oldnewlabel{#1}{{#2}{#3}}}
\AtEndDocument{\ifx\hyper@anchor\@undefined
\let\contentsline\oldcontentsline
\let\newlabel\oldnewlabel
\fi}
\fi}
\global\let\hyper@last\relax 
\gdef\HyperFirstAtBeginDocument#1{#1}
\providecommand\HyField@AuxAddToFields[1]{}
\providecommand\HyField@AuxAddToCoFields[2]{}
\select@language{brazil}
\@writefile{toc}{\select@language{brazil}}
\@writefile{lof}{\select@language{brazil}}
\@writefile{lot}{\select@language{brazil}}
\@writefile{toc}{\contentsline {section}{\numberline {1}Introdu\IeC {\c c}\IeC {\~a}o}{3}{section.1}}
\@writefile{toc}{\contentsline {section}{\numberline {2}Problema}{3}{section.2}}
\@writefile{lof}{\contentsline {figure}{\numberline {1}{\ignorespaces Modelo da linha de produ\IeC {\c c}\IeC {\~a}o apresentada no problema}}{3}{figure.1}}
\newlabel{fig:linhademontagem}{{1}{3}{Modelo da linha de produção apresentada no problema}{figure.1}{}}
\@writefile{toc}{\contentsline {section}{\numberline {3}Proposta e Solu\IeC {\c c}\IeC {\~a}o}{4}{section.3}}
\@writefile{toc}{\contentsline {section}{\numberline {4}Implementa\IeC {\c c}\IeC {\~o}es}{4}{section.4}}
\@writefile{toc}{\contentsline {subsection}{\numberline {4.1}Algoritmo de Programa\IeC {\c c}\IeC {\~a}o Din\IeC {\^a}mica - Floyd-Warshall}{4}{subsection.4.1}}
\@writefile{toc}{\contentsline {subsection}{\numberline {4.2}Algoritmo Guloso - Djikstra}{6}{subsection.4.2}}
\@writefile{toc}{\contentsline {section}{\numberline {5}Resultados}{7}{section.5}}
\@writefile{lof}{\contentsline {figure}{\numberline {2}{\ignorespaces Grafos de entrada}}{8}{figure.2}}
\newlabel{fig:grafos_de_entrada}{{2}{8}{Grafos de entrada}{figure.2}{}}
\@writefile{lof}{\contentsline {figure}{\numberline {3}{\ignorespaces Grafos de Resposta}}{8}{figure.3}}
\newlabel{fig:grafos_de_resposta}{{3}{8}{Grafos de Resposta}{figure.3}{}}
\@writefile{toc}{\contentsline {section}{\numberline {6}An\IeC {\'a}lise e Conclus\IeC {\~a}o}{8}{section.6}}
