\select@language {brazil}
\contentsline {section}{\numberline {1}Introdu\IeC {\c c}\IeC {\~a}o}{3}{section.1}
\contentsline {section}{\numberline {2}Problema}{3}{section.2}
\contentsline {section}{\numberline {3}Proposta e Solu\IeC {\c c}\IeC {\~a}o}{4}{section.3}
\contentsline {section}{\numberline {4}Implementa\IeC {\c c}\IeC {\~o}es}{4}{section.4}
\contentsline {subsection}{\numberline {4.1}Algoritmo de Programa\IeC {\c c}\IeC {\~a}o Din\IeC {\^a}mica - Floyd-Warshall}{4}{subsection.4.1}
\contentsline {subsection}{\numberline {4.2}Algoritmo Guloso - Djikstra}{6}{subsection.4.2}
\contentsline {section}{\numberline {5}Resultados}{7}{section.5}
\contentsline {section}{\numberline {6}An\IeC {\'a}lise e Conclus\IeC {\~a}o}{8}{section.6}
